Introduction to Data
…
2.3 Proportion of males admitted for each department

Finally we will make a table similar to the one we constructed earlier, except we will first group the data by department. The goal is to compare the proportions of male admitted students across departments.

Proportions for each row of the data frame we create can be calculated as n / sum(n). Note that since the data are grouped by department and gender, sum(n) will be calculated for males and females separately for each department.

Assign ucb_admission_counts as the count() of ucb_admit by department, gender, and admission status.

ucb_admission_counts <- ucb_admit %>%
  count(Dept, Gender, Admit)
# See the result
ucb_admission_counts  

# A tibble: 24 x 4
   Dept  Gender Admit        n
   <fct> <fct>  <fct>    <int>
 1 A     Female Admitted    89
 2 A     Female Rejected    19
 3 A     Male   Admitted   512
 4 A     Male   Rejected   313
 5 B     Female Admitted    17
 6 B     Female Rejected     8
 7 B     Male   Admitted   353
 8 B     Male   Rejected   207
 9 C     Female Admitted   202
10 C     Female Rejected   391
# ... with 14 more rows
…
3 Why sample?

Why not take a census?

3.1 Using gapminder

library(gapminder)
gapminder

# A tibble: 1,704 x 6
   country     continent  year lifeExp      pop gdpPercap
   <fct>       <fct>     <int>   <dbl>    <int>     <dbl>
 1 Afghanistan Asia       1952    28.8  8425333      779.
 2 Afghanistan Asia       1957    30.3  9240934      821.
 3 Afghanistan Asia       1962    32.0 10267083      853.
 4 Afghanistan Asia       1967    34.0 11537966      836.
 5 Afghanistan Asia       1972    36.1 13079460      740.
 6 Afghanistan Asia       1977    38.4 14880372      786.
 7 Afghanistan Asia       1982    39.9 12881816      978.
 8 Afghanistan Asia       1987    40.8 13867957      852.
 9 Afghanistan Asia       1992    41.7 16317921      649.
10 Afghanistan Asia       1997    41.8 22227415      635.
# ... with 1,694 more rows
…
county_srs %>% 
  group_by(state) %>% 
  count()

# A tibble: 42 x 2
# Groups:   state [42]
   state           n
   <fct>       <int>
 1 Alabama         2
 2 Alaska          1
 3 Arkansas        4
 4 California      1
 5 Colorado        3
 6 Connecticut     1
 7 Florida         3
 8 Georgia        11
 9 Idaho           2
10 Illinois        5
# ... with 32 more rows
…
