Discrimination?
…
DF %>% 
  group_by(Ethnicity, Age_Cohort) %>% 
  summarize(ME = mean(Expenditures), MDE = median(Expenditures), n= n())

# A tibble: 35 x 5
# Groups:   Ethnicity [8]
   Ethnicity       Age_Cohort     ME    MDE     n
   <chr>           <fct>       <dbl>  <dbl> <int>
 1 American Indian 13-17       3726   3726      1
 2 American Indian 22-50      28205  28205      1
 3 American Indian 51 +       56911  56911      2
 4 Asian           0-5         1502.  1388      8
 5 Asian           6-12        2165.  2001     18
 6 Asian           13-17       3509.  3628.    20
 7 Asian           18-21       9598.  9846     41
 8 Asian           22-50      39581. 40240     29
 9 Asian           51 +       54623. 54481     13
10 Black           0-5         1083   1398      3
#  with 25 more rows
…
