R Markdown
…
# Not quite what we want yet
library(dplyr)
ucb_admit <- UCB %>% 
  slice(rep(1:n(), Freq)) %>% 
  select(-Freq)
ucb_admit

# A tibble: 4,526 x 3
      Admit Gender   Dept
     <fctr> <fctr> <fctr>
 1 Admitted   Male      A
 2 Admitted   Male      A
 3 Admitted   Male      A
 4 Admitted   Male      A
 5 Admitted   Male      A
 6 Admitted   Male      A
 7 Admitted   Male      A
 8 Admitted   Male      A
 9 Admitted   Male      A
10 Admitted   Male      A
# ... with 4,516 more rows
…
Compute the average for fed_spend.

county_str %>% 
  summarize(Average = mean(fed_spend))

# A tibble: 50 x 2
         state   Average
        <fctr>     <dbl>
 1     Alabama  8.236781
 2      Alaska 14.127264
 3     Arizona  7.350705
 4    Arkansas 10.404131
 5  California  9.106758
 6    Colorado  7.093585
 7 Connecticut  9.787831
 8    Delaware  9.574810
 9     Florida  9.876874
10     Georgia  8.239389
# ... with 40 more rows
…
