Chi-Square
…
         Status
Pop       Improve No Change Worse
  Drug         67        76    57
  Placebo      48        73    79

The problem then becomes one of putting the data back into a tidy format.

NT <- TDP %>% 
  tibble::as_tibble() %>% 
  uncount(n)
NT

# A tibble: 400 x 2
   Pop   Status 
   <chr> <chr>  
 1 Drug  Improve
 2 Drug  Improve
 3 Drug  Improve
 4 Drug  Improve
 5 Drug  Improve
 6 Drug  Improve
 7 Drug  Improve
 8 Drug  Improve
 9 Drug  Improve
10 Drug  Improve
#  with 390 more rows
…
VEC
  Aquarius      Aries     Cancer  Capricorn     Gemini        Leo      Libra 
        24         23         23         22         18         20         18 
    Pisces Sagitarius    Scorpio     Taurus      Virgo 
        29         19         21         20         19 

BNT <- T2 %>% 
  tibble::as_tibble() %>% 
  uncount(n)
BNT

# A tibble: 256 x 1
   VEC     
   <chr>   
 1 Aquarius
 2 Aquarius
 3 Aquarius
 4 Aquarius
 5 Aquarius
 6 Aquarius
 7 Aquarius
 8 Aquarius
 9 Aquarius
10 Aquarius
#  with 246 more rows
…
           HepC
Tatoo       Yes  No
  Parlor     17  35
  Elsewhere   8  53
  None       22 491

NHT <- MTH %>% 
  tibble::as_tibble() %>% 
  uncount(n)
NHT

# A tibble: 626 x 2
   Tatoo  HepC 
   <chr>  <chr>
 1 Parlor Yes  
 2 Parlor Yes  
 3 Parlor Yes  
 4 Parlor Yes  
 5 Parlor Yes  
 6 Parlor Yes  
 7 Parlor Yes  
 8 Parlor Yes  
 9 Parlor Yes  
10 Parlor Yes  
#  with 616 more rows
…
